digraph "IEL_tput"
{
  edge [fontname="Helvetica",fontsize="10",labelfontname="Helvetica",labelfontsize="10"];
  node [fontname="Helvetica",fontsize="10",shape=record];
  rankdir="LR";
  Node3 [label="IEL_tput",height=0.2,width=0.4,color="black", fillcolor="grey75", style="filled", fontcolor="black"];
  Node3 -> Node4 [dir="back",color="midnightblue",fontsize="10",style="solid",fontname="Helvetica"];
  Node4 [label="manager_init",height=0.2,width=0.4,color="black", fillcolor="white", style="filled",URL="$tuple_comm_8c.html#a724ffedfb31b997802544e11dabef6a4",tooltip="Initialize the meta-data server&#39;s meta data and for each process, send the meta data server a message..."];
  Node4 -> Node5 [dir="back",color="midnightblue",fontsize="10",style="solid",fontname="Helvetica"];
  Node5 [label="ielTupleServer",height=0.2,width=0.4,color="black", fillcolor="white", style="filled",URL="$tuple_server_8c.html#ade4d513e84cd3a4aeded08fa17504428"];
  Node3 -> Node6 [dir="back",color="midnightblue",fontsize="10",style="solid",fontname="Helvetica"];
  Node6 [label="IEL_dist_tput",height=0.2,width=0.4,color="black", fillcolor="white", style="filled",URL="$tuple_comm_8c.html#a427e2f3fe62692c91eebeca177cf7809",tooltip="Manager function to do the work of deciding which server to use when distributed (multiple) tuple ser..."];
  Node3 -> Node7 [dir="back",color="midnightblue",fontsize="10",style="solid",fontname="Helvetica"];
  Node7 [label="IEL_dist_tget",height=0.2,width=0.4,color="black", fillcolor="white", style="filled",URL="$tuple_comm_8c.html#a014f6b60ef04fdcf2c3b72df460db4eb"];
  Node3 -> Node8 [dir="back",color="midnightblue",fontsize="10",style="solid",fontname="Helvetica"];
  Node8 [label="get_server_rank",height=0.2,width=0.4,color="black", fillcolor="white", style="filled",URL="$tuple_comm_8c.html#a1ad4c03b35d3d34082a67176a6b6c5c8"];
  Node8 -> Node6 [dir="back",color="midnightblue",fontsize="10",style="solid",fontname="Helvetica"];
}
