digraph "IEL_put"
{
  edge [fontname="Helvetica",fontsize="10",labelfontname="Helvetica",labelfontsize="10"];
  node [fontname="Helvetica",fontsize="10",shape=record];
  rankdir="LR";
  Node48 [label="IEL_put",height=0.2,width=0.4,color="black", fillcolor="grey75", style="filled", fontcolor="black"];
  Node48 -> Node49 [dir="back",color="midnightblue",fontsize="10",style="solid"];
  Node49 [label="IEL_put_impl",height=0.2,width=0.4,color="black", fillcolor="white", style="filled",URL="$_i_e_l__comm_8c.html#a43ee509df800ef041030c0f1ca99ab23",tooltip="Write data to the specified data handle. "];
  Node48 -> Node50 [dir="back",color="midnightblue",fontsize="10",style="solid"];
  Node50 [label="IEL_put_all",height=0.2,width=0.4,color="black", fillcolor="white", style="filled",URL="$_i_e_l__comm_8c.html#abc162f9695b3d5b27214ed81550ea58a",tooltip="Writes to all the specified handles. "];
  Node50 -> Node51 [dir="back",color="midnightblue",fontsize="10",style="solid"];
  Node51 [label="Module2",height=0.2,width=0.4,color="black", fillcolor="white", style="filled",URL="$radiosity__module_8c.html#ac38c36974d46f4a427109f434c7d063d",tooltip="This is the core function of the Radiation Module. "];
  Node50 -> Node52 [dir="back",color="midnightblue",fontsize="10",style="solid"];
  Node52 [label="Module0",height=0.2,width=0.4,color="black", fillcolor="white", style="filled",URL="$module0_8c.html#a35b14b25a5c97a3e6f600144580c4e50",tooltip="A dummy module function for the sake of simulation. "];
  Node50 -> Node53 [dir="back",color="midnightblue",fontsize="10",style="solid"];
  Node53 [label="Module1",height=0.2,width=0.4,color="black", fillcolor="white", style="filled",URL="$module1_8c.html#a25837363995b4c0a884df2bc31bdbb49",tooltip="A dummy module function for the sake of simulation. "];
}
