digraph "IEL_put_all"
{
  edge [fontname="Helvetica",fontsize="10",labelfontname="Helvetica",labelfontsize="10"];
  node [fontname="Helvetica",fontsize="10",shape=record];
  rankdir="LR";
  Node40 [label="IEL_put_all",height=0.2,width=0.4,color="black", fillcolor="grey75", style="filled", fontcolor="black"];
  Node40 -> Node41 [color="midnightblue",fontsize="10",style="solid"];
  Node41 [label="IEL_is_provided",height=0.2,width=0.4,color="black", fillcolor="white", style="filled",URL="$_i_e_l__comm_8c.html#aa44ab6ebaf9db605edf0cdc084e89a3e",tooltip="Checks if the specified handle ID is provided by this component. "];
  Node40 -> Node42 [color="midnightblue",fontsize="10",style="solid"];
  Node42 [label="IEL_put",height=0.2,width=0.4,color="black", fillcolor="white", style="filled",URL="$_i_e_l__comm_8c.html#a1470d847056dad97492ac4a663f0ff57",tooltip="Write data to the specified data handle. "];
}
