digraph "comm/IEL.h"
{
  edge [fontname="Helvetica",fontsize="10",labelfontname="Helvetica",labelfontsize="10"];
  node [fontname="Helvetica",fontsize="10",shape=record];
  Node7 [label="comm/IEL.h",height=0.2,width=0.4,color="black", fillcolor="grey75", style="filled", fontcolor="black"];
  Node7 -> Node8 [dir="back",color="midnightblue",fontsize="10",style="solid"];
  Node8 [label="comm/arrayList.h",height=0.2,width=0.4,color="black", fillcolor="white", style="filled",URL="$array_list_8h.html"];
  Node8 -> Node9 [dir="back",color="midnightblue",fontsize="10",style="solid"];
  Node9 [label="comm/arrayList.c",height=0.2,width=0.4,color="black", fillcolor="white", style="filled",URL="$array_list_8c.html"];
  Node7 -> Node10 [dir="back",color="midnightblue",fontsize="10",style="solid"];
  Node10 [label="comm/dlist.h",height=0.2,width=0.4,color="black", fillcolor="white", style="filled",URL="$dlist_8h.html"];
  Node10 -> Node11 [dir="back",color="midnightblue",fontsize="10",style="solid"];
  Node11 [label="comm/dlist.c",height=0.2,width=0.4,color="black", fillcolor="white", style="filled",URL="$dlist_8c.html"];
  Node10 -> Node12 [dir="back",color="midnightblue",fontsize="10",style="solid"];
  Node12 [label="comm/IEL_msg_queue.h",height=0.2,width=0.4,color="black", fillcolor="white", style="filled",URL="$_i_e_l__msg__queue_8h.html"];
  Node7 -> Node13 [dir="back",color="midnightblue",fontsize="10",style="solid"];
  Node13 [label="comm/IEL_msg_queue.c",height=0.2,width=0.4,color="black", fillcolor="white", style="filled",URL="$_i_e_l__msg__queue_8c.html"];
  Node7 -> Node14 [dir="back",color="midnightblue",fontsize="10",style="solid"];
  Node14 [label="exec/IEL_exec_info.h",height=0.2,width=0.4,color="black", fillcolor="white", style="filled",URL="$_i_e_l__exec__info_8h.html"];
  Node14 -> Node15 [dir="back",color="midnightblue",fontsize="10",style="solid"];
  Node15 [label="exec/IEL_cfg.c",height=0.2,width=0.4,color="black", fillcolor="white", style="filled",URL="$_i_e_l__cfg_8c.html"];
  Node14 -> Node16 [dir="back",color="midnightblue",fontsize="10",style="solid"];
  Node16 [label="exec/IEL_exec_info.c",height=0.2,width=0.4,color="black", fillcolor="white", style="filled",URL="$_i_e_l__exec__info_8c.html"];
  Node14 -> Node17 [dir="back",color="midnightblue",fontsize="10",style="solid"];
  Node17 [label="exec/IEL_executive.c",height=0.2,width=0.4,color="black", fillcolor="white", style="filled",URL="$_i_e_l__executive_8c.html"];
  Node14 -> Node18 [dir="back",color="midnightblue",fontsize="10",style="solid"];
  Node18 [label="exec/tuple_server.h",height=0.2,width=0.4,color="black", fillcolor="white", style="filled",URL="$tuple__server_8h.html"];
  Node18 -> Node17 [dir="back",color="midnightblue",fontsize="10",style="solid"];
  Node18 -> Node19 [dir="back",color="midnightblue",fontsize="10",style="solid"];
  Node19 [label="exec/IEL_group_graph.h",height=0.2,width=0.4,color="black", fillcolor="white", style="filled",URL="$_i_e_l__group__graph_8h.html"];
  Node19 -> Node20 [dir="back",color="midnightblue",fontsize="10",style="solid"];
  Node20 [label="exec/IEL_group_graph.c",height=0.2,width=0.4,color="black", fillcolor="white", style="filled",URL="$_i_e_l__group__graph_8c.html"];
  Node19 -> Node21 [dir="back",color="midnightblue",fontsize="10",style="solid"];
  Node21 [label="exec/tupleServer.c",height=0.2,width=0.4,color="black", fillcolor="white", style="filled",URL="$tuple_server_8c.html"];
  Node14 -> Node22 [dir="back",color="midnightblue",fontsize="10",style="solid"];
  Node22 [label="exec/misc/executive\l_test.c",height=0.2,width=0.4,color="black", fillcolor="white", style="filled",URL="$executive__test_8c.html"];
  Node14 -> Node23 [dir="back",color="midnightblue",fontsize="10",style="solid"];
  Node23 [label="exec/misc/iel_cfg_hdf5.c",height=0.2,width=0.4,color="black", fillcolor="white", style="filled",URL="$iel__cfg__hdf5_8c.html"];
  Node14 -> Node24 [dir="back",color="midnightblue",fontsize="10",style="solid"];
  Node24 [label="exec/misc/radiosity\l_module.c",height=0.2,width=0.4,color="black", fillcolor="white", style="filled",URL="$radiosity__module_8c.html"];
  Node14 -> Node25 [dir="back",color="midnightblue",fontsize="10",style="solid"];
  Node25 [label="exec/simple_test/module0.c",height=0.2,width=0.4,color="black", fillcolor="white", style="filled",URL="$module0_8c.html"];
  Node14 -> Node26 [dir="back",color="midnightblue",fontsize="10",style="solid"];
  Node26 [label="exec/simple_test/module1.c",height=0.2,width=0.4,color="black", fillcolor="white", style="filled",URL="$module1_8c.html"];
  Node14 -> Node21 [dir="back",color="midnightblue",fontsize="10",style="solid"];
  Node7 -> Node24 [dir="back",color="midnightblue",fontsize="10",style="solid"];
  Node7 -> Node25 [dir="back",color="midnightblue",fontsize="10",style="solid"];
  Node7 -> Node26 [dir="back",color="midnightblue",fontsize="10",style="solid"];
  Node7 -> Node21 [dir="back",color="midnightblue",fontsize="10",style="solid"];
}
