digraph "IEL_data_flow_init"
{
  edge [fontname="Helvetica",fontsize="10",labelfontname="Helvetica",labelfontsize="10"];
  node [fontname="Helvetica",fontsize="10",shape=record];
  rankdir="LR";
  Node81 [label="IEL_data_flow_init",height=0.2,width=0.4,color="black", fillcolor="grey75", style="filled", fontcolor="black"];
  Node81 -> Node82 [dir="back",color="midnightblue",fontsize="10",style="solid"];
  Node82 [label="IEL_gather_requirements",height=0.2,width=0.4,color="black", fillcolor="white", style="filled",URL="$_i_e_l__comm_8c.html#a474f7af07f1fb04b62cbfd113a94e168",tooltip="This builds the global data flow by gathering the dependency information from all nodes..."];
}
