digraph "IEL_bc_exchange"
{
  edge [fontname="Helvetica",fontsize="10",labelfontname="Helvetica",labelfontsize="10"];
  node [fontname="Helvetica",fontsize="10",shape=record];
  rankdir="LR";
  Node45 [label="IEL_bc_exchange",height=0.2,width=0.4,color="black", fillcolor="grey75", style="filled", fontcolor="black"];
  Node45 -> Node46 [color="midnightblue",fontsize="10",style="solid"];
  Node46 [label="IEL_bc_put",height=0.2,width=0.4,color="black", fillcolor="white", style="filled",URL="$_i_e_l__exec__info_8c.html#af35ff44f5aa8369a4ea8c8c15675941d",tooltip="Packs and sends (nonblocking) the write-partitioned data in this process&#39;s shared_bc array to the hea..."];
  Node45 -> Node47 [color="midnightblue",fontsize="10",style="solid"];
  Node47 [label="IEL_bc_get",height=0.2,width=0.4,color="black", fillcolor="white", style="filled",URL="$_i_e_l__exec__info_8c.html#a055d4311e7016e705551232180f2d639",tooltip="Receives (nonblocking with wait) and unpacks the read-partitioned data into this process&#39;s shared_bc ..."];
}
