digraph "reduceFortInfo"
{
  edge [fontname="Helvetica",fontsize="10",labelfontname="Helvetica",labelfontsize="10"];
  node [fontname="Helvetica",fontsize="10",shape=record];
  rankdir="LR";
  Node83 [label="reduceFortInfo",height=0.2,width=0.4,color="black", fillcolor="grey75", style="filled", fontcolor="black"];
  Node83 -> Node84 [color="midnightblue",fontsize="10",style="solid"];
  Node84 [label="dupstr",height=0.2,width=0.4,color="black", fillcolor="white", style="filled",URL="$_i_e_l__exec__info_8c.html#a4aecf1671ac70df33c93a7feb4a5e830",tooltip="An implementation of the non-standard \"strdup\" function that was being used in the IEL even though no..."];
}
