digraph "SafeMalloc"
{
  edge [fontname="Helvetica",fontsize="10",labelfontname="Helvetica",labelfontsize="10"];
  node [fontname="Helvetica",fontsize="10",shape=record];
  rankdir="LR";
  Node6 [label="SafeMalloc",height=0.2,width=0.4,color="black", fillcolor="grey75", style="filled", fontcolor="black"];
  Node6 -> Node7 [dir="back",color="midnightblue",fontsize="10",style="solid"];
  Node7 [label="IEL_tput",height=0.2,width=0.4,color="black", fillcolor="white", style="filled",URL="$tuple_comm_8c.html#a98698e0475e2cea6e4ecc59298ce180d",tooltip="Sends a tuple to the server. "];
  Node7 -> Node8 [dir="back",color="midnightblue",fontsize="10",style="solid"];
  Node8 [label="manager_init",height=0.2,width=0.4,color="black", fillcolor="white", style="filled",URL="$tuple_comm_8c.html#a724ffedfb31b997802544e11dabef6a4",tooltip="Initialize the meta-data server&#39;s meta data and for each process, send the meta data server a message..."];
  Node8 -> Node9 [dir="back",color="midnightblue",fontsize="10",style="solid"];
  Node9 [label="ielTupleServer",height=0.2,width=0.4,color="black", fillcolor="white", style="filled",URL="$tuple_server_8c.html#ade4d513e84cd3a4aeded08fa17504428"];
  Node7 -> Node10 [dir="back",color="midnightblue",fontsize="10",style="solid"];
  Node10 [label="IEL_dist_tput",height=0.2,width=0.4,color="black", fillcolor="white", style="filled",URL="$tuple_comm_8c.html#a427e2f3fe62692c91eebeca177cf7809",tooltip="Manager function to do the work of deciding which server to use when distributed (multiple) tuple ser..."];
  Node7 -> Node11 [dir="back",color="midnightblue",fontsize="10",style="solid"];
  Node11 [label="IEL_dist_tget",height=0.2,width=0.4,color="black", fillcolor="white", style="filled",URL="$tuple_comm_8c.html#a014f6b60ef04fdcf2c3b72df460db4eb"];
  Node7 -> Node12 [dir="back",color="midnightblue",fontsize="10",style="solid"];
  Node12 [label="get_server_rank",height=0.2,width=0.4,color="black", fillcolor="white", style="filled",URL="$tuple_comm_8c.html#a1ad4c03b35d3d34082a67176a6b6c5c8"];
  Node12 -> Node10 [dir="back",color="midnightblue",fontsize="10",style="solid"];
  Node6 -> Node13 [dir="back",color="midnightblue",fontsize="10",style="solid"];
  Node13 [label="IEL_tget",height=0.2,width=0.4,color="black", fillcolor="white", style="filled",URL="$tuple_comm_8c.html#a323d2bc216fd2c31561a19b21830a2bb",tooltip="Requests a tuple from the server. "];
  Node13 -> Node10 [dir="back",color="midnightblue",fontsize="10",style="solid"];
  Node13 -> Node11 [dir="back",color="midnightblue",fontsize="10",style="solid"];
  Node13 -> Node12 [dir="back",color="midnightblue",fontsize="10",style="solid"];
  Node6 -> Node10 [dir="back",color="midnightblue",fontsize="10",style="solid"];
  Node6 -> Node11 [dir="back",color="midnightblue",fontsize="10",style="solid"];
}
