digraph "IEL_get_all"
{
  edge [fontname="Helvetica",fontsize="10",labelfontname="Helvetica",labelfontsize="10"];
  node [fontname="Helvetica",fontsize="10",shape=record];
  rankdir="LR";
  Node6 [label="IEL_get_all",height=0.2,width=0.4,color="black", fillcolor="grey75", style="filled", fontcolor="black"];
  Node6 -> Node7 [dir="back",color="midnightblue",fontsize="10",style="solid"];
  Node7 [label="Module2",height=0.2,width=0.4,color="black", fillcolor="white", style="filled",URL="$radiosity__module_8c.html#ac38c36974d46f4a427109f434c7d063d",tooltip="This is the core function of the Radiation Module. "];
  Node6 -> Node8 [dir="back",color="midnightblue",fontsize="10",style="solid"];
  Node8 [label="Module0",height=0.2,width=0.4,color="black", fillcolor="white", style="filled",URL="$module0_8c.html#a35b14b25a5c97a3e6f600144580c4e50",tooltip="A dummy module function for the sake of simulation. "];
  Node6 -> Node9 [dir="back",color="midnightblue",fontsize="10",style="solid"];
  Node9 [label="Module1",height=0.2,width=0.4,color="black", fillcolor="white", style="filled",URL="$module1_8c.html#a25837363995b4c0a884df2bc31bdbb49",tooltip="A dummy module function for the sake of simulation. "];
}
