digraph "IEL_exec_pack_info"
{
  edge [fontname="Helvetica",fontsize="10",labelfontname="Helvetica",labelfontsize="10"];
  node [fontname="Helvetica",fontsize="10",shape=record];
  rankdir="LR";
  Node74 [label="IEL_exec_pack_info",height=0.2,width=0.4,color="black", fillcolor="grey75", style="filled", fontcolor="black"];
  Node74 -> Node75 [color="midnightblue",fontsize="10",style="solid"];
  Node75 [label="pack_size_ub",height=0.2,width=0.4,color="black", fillcolor="white", style="filled",URL="$_i_e_l__exec__info_8c.html#a41ff8ff2114d845b3c82e40eca7f6b69",tooltip="Returns the upper bound on the size of the buffer needed to transmit the IEL Executive data structure..."];
}
