digraph "dfs"
{
  edge [fontname="Helvetica",fontsize="10",labelfontname="Helvetica",labelfontsize="10"];
  node [fontname="Helvetica",fontsize="10",shape=record];
  rankdir="LR";
  Node1 [label="dfs",height=0.2,width=0.4,color="black", fillcolor="grey75", style="filled", fontcolor="black"];
  Node1 -> Node2 [dir="back",color="midnightblue",fontsize="10",style="solid"];
  Node2 [label="dfs",height=0.2,width=0.4,color="black", fillcolor="white", style="filled",URL="$_i_e_l__group__graph_8h.html#aca69abc3ba3b991064909d5b147e5d20"];
  Node2 -> Node2 [dir="back",color="midnightblue",fontsize="10",style="solid"];
  Node2 -> Node3 [dir="back",color="midnightblue",fontsize="10",style="solid"];
  Node3 [label="ielTupleServer",height=0.2,width=0.4,color="black", fillcolor="white", style="filled",URL="$tuple_server_8c.html#ade4d513e84cd3a4aeded08fa17504428"];
  Node1 -> Node3 [dir="back",color="midnightblue",fontsize="10",style="solid"];
}
