digraph "IEL_exec_unpack_info"
{
  edge [fontname="Helvetica",fontsize="10",labelfontname="Helvetica",labelfontsize="10"];
  node [fontname="Helvetica",fontsize="10",shape=record];
  rankdir="LR";
  Node28 [label="IEL_exec_unpack_info",height=0.2,width=0.4,color="black", fillcolor="grey75", style="filled", fontcolor="black"];
  Node28 -> Node29 [dir="back",color="midnightblue",fontsize="10",style="solid"];
  Node29 [label="IEL_executive_init",height=0.2,width=0.4,color="black", fillcolor="white", style="filled",URL="$_i_e_l__executive_8c.html#a761632f3656ca6a18451d508b2f22e29",tooltip="Initializes the IEL Executive. "];
  Node29 -> Node30 [dir="back",color="midnightblue",fontsize="10",style="solid"];
  Node30 [label="IELExecutive",height=0.2,width=0.4,color="black", fillcolor="white", style="filled",URL="$_i_e_l__executive_8c.html#a732b643e4f5a5a43a787f4e0b644080f",tooltip="The workhorse function of the IEL Executive. "];
  Node30 -> Node31 [dir="back",color="midnightblue",fontsize="10",style="solid"];
  Node31 [label="IELExecInit",height=0.2,width=0.4,color="black", fillcolor="white", style="filled",URL="$_i_e_l__executive_8c.html#abad9ae4dc22308fb02b342b36b1d5881",tooltip="The main function. "];
  Node28 -> Node32 [dir="back",color="midnightblue",fontsize="10",style="solid"];
  Node32 [label="main",height=0.2,width=0.4,color="black", fillcolor="white", style="filled",URL="$executive__test_8c.html#a0ddf1224851353fc92bfbff6f499fa97"];
}
