digraph "IEL_bc_get"
{
  edge [fontname="Helvetica",fontsize="10",labelfontname="Helvetica",labelfontsize="10"];
  node [fontname="Helvetica",fontsize="10",shape=record];
  rankdir="LR";
  Node43 [label="IEL_bc_get",height=0.2,width=0.4,color="black", fillcolor="grey75", style="filled", fontcolor="black"];
  Node43 -> Node44 [dir="back",color="midnightblue",fontsize="10",style="solid"];
  Node44 [label="IEL_bc_exchange",height=0.2,width=0.4,color="black", fillcolor="white", style="filled",URL="$_i_e_l__exec__info_8h.html#ac19b3e33d10797e197dc57e603627284"];
}
