digraph "IELExecutive"
{
  edge [fontname="Helvetica",fontsize="10",labelfontname="Helvetica",labelfontsize="10"];
  node [fontname="Helvetica",fontsize="10",shape=record];
  rankdir="LR";
  Node9 [label="IELExecutive",height=0.2,width=0.4,color="black", fillcolor="grey75", style="filled", fontcolor="black"];
  Node9 -> Node10 [color="midnightblue",fontsize="10",style="solid"];
  Node10 [label="IEL_executive_init",height=0.2,width=0.4,color="black", fillcolor="white", style="filled",URL="$_i_e_l__executive_8c.html#a761632f3656ca6a18451d508b2f22e29",tooltip="Initializes the IEL Executive. "];
  Node10 -> Node11 [color="midnightblue",fontsize="10",style="solid"];
  Node11 [label="IEL_exec_config",height=0.2,width=0.4,color="black", fillcolor="white", style="filled",URL="$_i_e_l__cfg_8c.html#a8600e6cad8f37464bf84f3777f92f4ef",tooltip="initializes a IEL Executive info data structure by reading in the information from the specified conf..."];
  Node11 -> Node12 [color="midnightblue",fontsize="10",style="solid"];
  Node12 [label="IEL_exec_clear",height=0.2,width=0.4,color="black", fillcolor="white", style="filled",URL="$_i_e_l__exec__info_8c.html#a00ad2bc31c3da3c563089496cf33324d",tooltip="Clears a IEL_exec_info_t struct, setting all pointers to NULL. "];
  Node11 -> Node13 [color="midnightblue",fontsize="10",style="solid"];
  Node13 [label="config_init",height=0.2,width=0.4,color="black", fillcolor="white", style="filled",URL="$libconfig_8h.html#a82167de44e3529cf4558aa0d2cd4ce64"];
  Node11 -> Node14 [color="midnightblue",fontsize="10",style="solid"];
  Node14 [label="config_read_file",height=0.2,width=0.4,color="black", fillcolor="white", style="filled",URL="$libconfig_8h.html#a07dc4858f102ee91fafc17ed5932215e"];
  Node11 -> Node15 [color="midnightblue",fontsize="10",style="solid"];
  Node15 [label="config_destroy",height=0.2,width=0.4,color="black", fillcolor="white", style="filled",URL="$libconfig_8h.html#a6c7e766968945321babc7387cd42421b"];
  Node11 -> Node16 [color="midnightblue",fontsize="10",style="solid"];
  Node16 [label="config_lookup_int",height=0.2,width=0.4,color="black", fillcolor="white", style="filled",URL="$libconfig_8h.html#a81b712617906bfe227643a3087a395ab"];
  Node11 -> Node17 [color="midnightblue",fontsize="10",style="solid"];
  Node17 [label="config_lookup",height=0.2,width=0.4,color="black", fillcolor="white", style="filled",URL="$libconfig_8h.html#a5bbc9b771c9add0265b235dd90a735af"];
  Node11 -> Node18 [color="midnightblue",fontsize="10",style="solid"];
  Node18 [label="config_setting_length",height=0.2,width=0.4,color="black", fillcolor="white", style="filled",URL="$libconfig_8h.html#aa061576c1ac9497eec69561d78a33772"];
  Node11 -> Node19 [color="midnightblue",fontsize="10",style="solid"];
  Node19 [label="config_setting_get_elem",height=0.2,width=0.4,color="black", fillcolor="white", style="filled",URL="$libconfig_8h.html#afc84573448608b181c20cdb1f2d08e65"];
  Node11 -> Node20 [color="midnightblue",fontsize="10",style="solid"];
  Node20 [label="config_setting_lookup\l_string",height=0.2,width=0.4,color="black", fillcolor="white", style="filled",URL="$libconfig_8h.html#a5d4c2d0b9a2336e7874bb4a220ed8e45"];
  Node11 -> Node21 [color="midnightblue",fontsize="10",style="solid"];
  Node21 [label="config_setting_get\l_member",height=0.2,width=0.4,color="black", fillcolor="white", style="filled",URL="$libconfig_8h.html#a527e54d721f9f0a901e721b0cb517a8a"];
  Node11 -> Node22 [color="midnightblue",fontsize="10",style="solid"];
  Node22 [label="config_setting_lookup_int",height=0.2,width=0.4,color="black", fillcolor="white", style="filled",URL="$libconfig_8h.html#a28b764be25c6619b04371f2f678d6415"];
  Node11 -> Node23 [color="midnightblue",fontsize="10",style="solid"];
  Node23 [label="config_setting_get\l_int_elem",height=0.2,width=0.4,color="black", fillcolor="white", style="filled",URL="$libconfig_8h.html#ad7819d9af7d06c3e6e252359256d7380"];
  Node11 -> Node24 [color="midnightblue",fontsize="10",style="solid"];
  Node24 [label="dupstr",height=0.2,width=0.4,color="black", fillcolor="white", style="filled",URL="$_i_e_l__exec__info_8c.html#a4aecf1671ac70df33c93a7feb4a5e830",tooltip="An implementation of the non-standard \"strdup\" function that was being used in the IEL even though no..."];
  Node10 -> Node25 [color="midnightblue",fontsize="10",style="solid"];
  Node25 [label="timestamp",height=0.2,width=0.4,color="black", fillcolor="white", style="filled",URL="$_i_e_l__executive_8c.html#acaeb7b4b05d3c1a5b225598a705fe0ed"];
  Node10 -> Node26 [color="midnightblue",fontsize="10",style="solid"];
  Node26 [label="IEL_exec_pack_info",height=0.2,width=0.4,color="black", fillcolor="white", style="filled",URL="$_i_e_l__exec__info_8c.html#ac357fa3ff9974030b08fdb018d9f0109",tooltip="Packs the IEL Executive info struct into a buffer to be transmitted via MPI. "];
  Node26 -> Node27 [color="midnightblue",fontsize="10",style="solid"];
  Node27 [label="pack_size_ub",height=0.2,width=0.4,color="black", fillcolor="white", style="filled",URL="$_i_e_l__exec__info_8c.html#a41ff8ff2114d845b3c82e40eca7f6b69",tooltip="Returns the upper bound on the size of the buffer needed to transmit the IEL Executive data structure..."];
  Node10 -> Node28 [color="midnightblue",fontsize="10",style="solid"];
  Node28 [label="IEL_exec_unpack_info",height=0.2,width=0.4,color="black", fillcolor="white", style="filled",URL="$_i_e_l__exec__info_8c.html#a0973a431bd5eee6a22f0b71cfbb976a8",tooltip="Unpacks the buffer received via MPI into the IEL Executive info struct. "];
  Node9 -> Node29 [color="midnightblue",fontsize="10",style="solid"];
  Node29 [label="IEL_tupleImDone",height=0.2,width=0.4,color="black", fillcolor="white", style="filled",URL="$tuple__comm_8h.html#a04f8626bcb70b4aa2f1b6cd7fd89c105",tooltip="Tells the tuple space that this process is done. "];
  Node29 -> Node30 [color="midnightblue",fontsize="10",style="solid"];
  Node30 [label="Assert",height=0.2,width=0.4,color="black", fillcolor="white", style="filled",URL="$_i_e_l__err_8c.html#a55d61b17f0ce6cfbe17ffce1879c65f1"];
  Node9 -> Node31 [color="midnightblue",fontsize="10",style="solid"];
  Node31 [label="IEL_run_waiting",height=0.2,width=0.4,color="black", fillcolor="white", style="filled",URL="$tuple__server_8h.html#a46ec0683b3bd8aa3174cbe68782b2140",tooltip="Wrapper around a receive; called so that the executive can access the server to know when the calling..."];
  Node9 -> Node32 [color="midnightblue",fontsize="10",style="solid"];
  Node32 [label="IEL_group_waiting",height=0.2,width=0.4,color="black", fillcolor="white", style="filled",URL="$tuple__server_8h.html#a2092dbeaf2a0b11c1a86e6991369f303",tooltip="Wrapper around a receive; called so that the executive can access the server to know when the calling..."];
  Node9 -> Node33 [color="midnightblue",fontsize="10",style="solid"];
  Node33 [label="IEL_workflow_init",height=0.2,width=0.4,color="black", fillcolor="white", style="filled",URL="$_i_e_l__executive_8c.html#a349e043755da16ffb678b27aa9daa78b",tooltip="This function prepares exec_info for the next iteration of the workflow. "];
}
