digraph "IEL_bc_put"
{
  edge [fontname="Helvetica",fontsize="10",labelfontname="Helvetica",labelfontsize="10"];
  node [fontname="Helvetica",fontsize="10",shape=record];
  rankdir="LR";
  Node40 [label="IEL_bc_put",height=0.2,width=0.4,color="black", fillcolor="grey75", style="filled", fontcolor="black"];
  Node40 -> Node41 [dir="back",color="midnightblue",fontsize="10",style="solid"];
  Node41 [label="IEL_bc_exchange",height=0.2,width=0.4,color="black", fillcolor="white", style="filled",URL="$_i_e_l__exec__info_8h.html#ac19b3e33d10797e197dc57e603627284"];
}
