digraph "exec/misc" {
  compound=true
  node [ fontsize="10", fontname="Helvetica"];
  edge [ labelfontsize="10", labelfontname="Helvetica"];
  subgraph clusterdir_3503f86ebac7e9741312f92017d9530a {
    graph [ bgcolor="#ddddee", pencolor="black", label="exec" fontname="Helvetica", fontsize="10", URL="dir_3503f86ebac7e9741312f92017d9530a.html"]
  dir_62fdb6a01b19cb9a9cfe81ee9af73e35 [shape=box, label="misc", style="filled", fillcolor="#eeeeff", pencolor="black", URL="dir_62fdb6a01b19cb9a9cfe81ee9af73e35.html"];
  }
  dir_48915bc83c3e9a2c33920cc086982b8a [shape=box label="comm" URL="dir_48915bc83c3e9a2c33920cc086982b8a.html"];
  dir_62fdb6a01b19cb9a9cfe81ee9af73e35->dir_48915bc83c3e9a2c33920cc086982b8a [headlabel="1", labeldistance=1.5 headhref="dir_000002_000000.html"];
}
