digraph "exec/simple_test" {
  compound=true
  node [ fontsize="10", fontname="Helvetica"];
  edge [ labelfontsize="10", labelfontname="Helvetica"];
  subgraph clusterdir_3503f86ebac7e9741312f92017d9530a {
    graph [ bgcolor="#ddddee", pencolor="black", label="exec" fontname="Helvetica", fontsize="10", URL="dir_3503f86ebac7e9741312f92017d9530a.html"]
  dir_542dea2daec9f34f5b423f58137dfd62 [shape=box, label="simple_test", style="filled", fillcolor="#eeeeff", pencolor="black", URL="dir_542dea2daec9f34f5b423f58137dfd62.html"];
  }
  dir_48915bc83c3e9a2c33920cc086982b8a [shape=box label="comm" URL="dir_48915bc83c3e9a2c33920cc086982b8a.html"];
  dir_542dea2daec9f34f5b423f58137dfd62->dir_48915bc83c3e9a2c33920cc086982b8a [headlabel="2", labeldistance=1.5 headhref="dir_000003_000000.html"];
}
