digraph "dl_insert_n"
{
  edge [fontname="Helvetica",fontsize="10",labelfontname="Helvetica",labelfontsize="10"];
  node [fontname="Helvetica",fontsize="10",shape=record];
  rankdir="LR";
  Node24 [label="dl_insert_n",height=0.2,width=0.4,color="black", fillcolor="grey75", style="filled", fontcolor="black"];
  Node24 -> Node25 [color="midnightblue",fontsize="10",style="solid"];
  Node25 [label="dl_node_n",height=0.2,width=0.4,color="black", fillcolor="white", style="filled",URL="$dlist_8c.html#a751350606e9efffe4ca0a53e67851750"];
  Node24 -> Node26 [color="midnightblue",fontsize="10",style="solid"];
  Node26 [label="dl_insert_b",height=0.2,width=0.4,color="black", fillcolor="white", style="filled",URL="$dlist_8c.html#a9c99a2294b1a64a1249ed0966efc63a5",tooltip="Makes an empty dlist, returns pointer to said list. "];
}
