digraph "dl_unlock_tag"
{
  edge [fontname="Helvetica",fontsize="10",labelfontname="Helvetica",labelfontsize="10"];
  node [fontname="Helvetica",fontsize="10",shape=record];
  rankdir="LR";
  Node65 [label="dl_unlock_tag",height=0.2,width=0.4,color="black", fillcolor="grey75", style="filled", fontcolor="black"];
  Node65 -> Node66 [color="midnightblue",fontsize="10",style="solid"];
  Node66 [label="dl_unlock_n",height=0.2,width=0.4,color="black", fillcolor="white", style="filled",URL="$dlist_8c.html#a72842f7ac637e710f53e877d0fecfce6"];
  Node66 -> Node67 [color="midnightblue",fontsize="10",style="solid"];
  Node67 [label="dl_node_n",height=0.2,width=0.4,color="black", fillcolor="white", style="filled",URL="$dlist_8c.html#a751350606e9efffe4ca0a53e67851750"];
  Node66 -> Node68 [color="midnightblue",fontsize="10",style="solid"];
  Node68 [label="dl_unlock_node",height=0.2,width=0.4,color="black", fillcolor="white", style="filled",URL="$dlist_8c.html#a831e78cd6688f21c5d85a44f170fde35"];
  Node65 -> Node69 [color="midnightblue",fontsize="10",style="solid"];
  Node69 [label="dl_find",height=0.2,width=0.4,color="black", fillcolor="white", style="filled",URL="$dlist_8c.html#abf1923968ebc6981767ff01ab441a4b4"];
}
