digraph "dl_node_n"
{
  edge [fontname="Helvetica",fontsize="10",labelfontname="Helvetica",labelfontsize="10"];
  node [fontname="Helvetica",fontsize="10",shape=record];
  rankdir="LR";
  Node29 [label="dl_node_n",height=0.2,width=0.4,color="black", fillcolor="grey75", style="filled", fontcolor="black"];
  Node29 -> Node30 [dir="back",color="midnightblue",fontsize="10",style="solid"];
  Node30 [label="dl_insert_n",height=0.2,width=0.4,color="black", fillcolor="white", style="filled",URL="$dlist_8h.html#a3fbc8f9ca2a432bc3d9ce211466d1cec"];
  Node29 -> Node31 [dir="back",color="midnightblue",fontsize="10",style="solid"];
  Node31 [label="dl_lock_n",height=0.2,width=0.4,color="black", fillcolor="white", style="filled",URL="$dlist_8h.html#a895bec6738be7ad3f591ad1020a75e85"];
  Node31 -> Node32 [dir="back",color="midnightblue",fontsize="10",style="solid"];
  Node32 [label="dl_lock_tag",height=0.2,width=0.4,color="black", fillcolor="white", style="filled",URL="$dlist_8h.html#aa4d6ce547931eb6e2985b011fcd59d65"];
  Node29 -> Node33 [dir="back",color="midnightblue",fontsize="10",style="solid"];
  Node33 [label="dl_unlock_n",height=0.2,width=0.4,color="black", fillcolor="white", style="filled",URL="$dlist_8h.html#a6e516dea4ea0b46068c1da93a6d15be8"];
  Node33 -> Node34 [dir="back",color="midnightblue",fontsize="10",style="solid"];
  Node34 [label="dl_unlock_tag",height=0.2,width=0.4,color="black", fillcolor="white", style="filled",URL="$dlist_8h.html#a084543719f30cc49be71204f7947d67e"];
}
