digraph "exec/misc/iel_cfg_hdf5.c"
{
  edge [fontname="Helvetica",fontsize="10",labelfontname="Helvetica",labelfontsize="10"];
  node [fontname="Helvetica",fontsize="10",shape=record];
  Node0 [label="exec/misc/iel_cfg_hdf5.c",height=0.2,width=0.4,color="black", fillcolor="grey75", style="filled", fontcolor="black"];
  Node0 -> Node1 [color="midnightblue",fontsize="10",style="solid"];
  Node1 [label="stdio.h",height=0.2,width=0.4,color="grey75", fillcolor="white", style="filled"];
  Node0 -> Node2 [color="midnightblue",fontsize="10",style="solid"];
  Node2 [label="string.h",height=0.2,width=0.4,color="grey75", fillcolor="white", style="filled"];
  Node0 -> Node3 [color="midnightblue",fontsize="10",style="solid"];
  Node3 [label="stdlib.h",height=0.2,width=0.4,color="grey75", fillcolor="white", style="filled"];
  Node0 -> Node4 [color="midnightblue",fontsize="10",style="solid"];
  Node4 [label="hdf5.h",height=0.2,width=0.4,color="grey75", fillcolor="white", style="filled"];
  Node0 -> Node5 [color="midnightblue",fontsize="10",style="solid"];
  Node5 [label="IEL_exec_info.h",height=0.2,width=0.4,color="black", fillcolor="white", style="filled",URL="$_i_e_l__exec__info_8h.html"];
  Node5 -> Node6 [color="midnightblue",fontsize="10",style="solid"];
  Node6 [label="IEL.h",height=0.2,width=0.4,color="black", fillcolor="white", style="filled",URL="$_i_e_l_8h.html"];
  Node6 -> Node7 [color="midnightblue",fontsize="10",style="solid"];
  Node7 [label="IEL_err.h",height=0.2,width=0.4,color="black", fillcolor="white", style="filled",URL="$_i_e_l__err_8h.html"];
  Node7 -> Node3 [color="midnightblue",fontsize="10",style="solid"];
  Node6 -> Node8 [color="midnightblue",fontsize="10",style="solid"];
  Node8 [label="IEL_comm.h",height=0.2,width=0.4,color="black", fillcolor="white", style="filled",URL="$_i_e_l__comm_8h.html"];
  Node8 -> Node9 [color="midnightblue",fontsize="10",style="solid"];
  Node9 [label="IEL_data_handle.h",height=0.2,width=0.4,color="black", fillcolor="white", style="filled",URL="$_i_e_l__data__handle_8h.html"];
  Node9 -> Node10 [color="midnightblue",fontsize="10",style="solid"];
  Node10 [label="mpi.h",height=0.2,width=0.4,color="grey75", fillcolor="white", style="filled"];
  Node9 -> Node1 [color="midnightblue",fontsize="10",style="solid"];
  Node5 -> Node2 [color="midnightblue",fontsize="10",style="solid"];
}
