digraph "config_read_file"
{
  edge [fontname="Helvetica",fontsize="10",labelfontname="Helvetica",labelfontsize="10"];
  node [fontname="Helvetica",fontsize="10",shape=record];
  rankdir="LR";
  Node13 [label="config_read_file",height=0.2,width=0.4,color="black", fillcolor="grey75", style="filled", fontcolor="black"];
  Node13 -> Node14 [dir="back",color="midnightblue",fontsize="10",style="solid"];
  Node14 [label="IEL_exec_config",height=0.2,width=0.4,color="black", fillcolor="white", style="filled",URL="$_i_e_l__exec__info_8h.html#a3a9d93e22f09aa6cdcd2210d6e966baf",tooltip="initializes a IEL Executive info data structure by reading in the information from the specified conf..."];
  Node14 -> Node15 [dir="back",color="midnightblue",fontsize="10",style="solid"];
  Node15 [label="IEL_executive_init",height=0.2,width=0.4,color="black", fillcolor="white", style="filled",URL="$_i_e_l__executive_8c.html#a761632f3656ca6a18451d508b2f22e29",tooltip="Initializes the IEL Executive. "];
  Node15 -> Node16 [dir="back",color="midnightblue",fontsize="10",style="solid"];
  Node16 [label="IELExecutive",height=0.2,width=0.4,color="black", fillcolor="white", style="filled",URL="$_i_e_l__executive_8c.html#a732b643e4f5a5a43a787f4e0b644080f",tooltip="The workhorse function of the IEL Executive. "];
  Node16 -> Node17 [dir="back",color="midnightblue",fontsize="10",style="solid"];
  Node17 [label="IELExecInit",height=0.2,width=0.4,color="black", fillcolor="white", style="filled",URL="$_i_e_l__executive_8c.html#abad9ae4dc22308fb02b342b36b1d5881",tooltip="The main function. "];
}
