digraph "free_queue"
{
  edge [fontname="Helvetica",fontsize="10",labelfontname="Helvetica",labelfontsize="10"];
  node [fontname="Helvetica",fontsize="10",shape=record];
  rankdir="LR";
  Node15 [label="free_queue",height=0.2,width=0.4,color="black", fillcolor="grey75", style="filled", fontcolor="black"];
  Node15 -> Node16 [color="midnightblue",fontsize="10",style="solid"];
  Node16 [label="q_isEmpty",height=0.2,width=0.4,color="black", fillcolor="white", style="filled",URL="$queue_8c.html#a4b64a24bf411c7556fc87e5d3c98ef13"];
}
