digraph "q_peek"
{
  edge [fontname="Helvetica",fontsize="10",labelfontname="Helvetica",labelfontsize="10"];
  node [fontname="Helvetica",fontsize="10",shape=record];
  rankdir="LR";
  Node7 [label="q_peek",height=0.2,width=0.4,color="black", fillcolor="grey75", style="filled", fontcolor="black"];
  Node7 -> Node8 [color="midnightblue",fontsize="10",style="solid"];
  Node8 [label="q_isEmpty",height=0.2,width=0.4,color="black", fillcolor="white", style="filled",URL="$queue_8c.html#a4b64a24bf411c7556fc87e5d3c98ef13"];
}
