digraph "exec/misc/radiosity_module.c"
{
  edge [fontname="Helvetica",fontsize="10",labelfontname="Helvetica",labelfontsize="10"];
  node [fontname="Helvetica",fontsize="10",shape=record];
  Node0 [label="exec/misc/radiosity\l_module.c",height=0.2,width=0.4,color="black", fillcolor="grey75", style="filled", fontcolor="black"];
  Node0 -> Node1 [color="midnightblue",fontsize="10",style="solid"];
  Node1 [label="mpi.h",height=0.2,width=0.4,color="grey75", fillcolor="white", style="filled"];
  Node0 -> Node2 [color="midnightblue",fontsize="10",style="solid"];
  Node2 [label="stdlib.h",height=0.2,width=0.4,color="grey75", fillcolor="white", style="filled"];
  Node0 -> Node3 [color="midnightblue",fontsize="10",style="solid"];
  Node3 [label="stdio.h",height=0.2,width=0.4,color="grey75", fillcolor="white", style="filled"];
  Node0 -> Node4 [color="midnightblue",fontsize="10",style="solid"];
  Node4 [label="string.h",height=0.2,width=0.4,color="grey75", fillcolor="white", style="filled"];
  Node0 -> Node5 [color="midnightblue",fontsize="10",style="solid"];
  Node5 [label="math.h",height=0.2,width=0.4,color="grey75", fillcolor="white", style="filled"];
  Node0 -> Node6 [color="midnightblue",fontsize="10",style="solid"];
  Node6 [label="cuda.h",height=0.2,width=0.4,color="grey75", fillcolor="white", style="filled"];
  Node0 -> Node7 [color="midnightblue",fontsize="10",style="solid"];
  Node7 [label="unistd.h",height=0.2,width=0.4,color="grey75", fillcolor="white", style="filled"];
  Node0 -> Node8 [color="midnightblue",fontsize="10",style="solid"];
  Node8 [label="sys/wait.h",height=0.2,width=0.4,color="grey75", fillcolor="white", style="filled"];
  Node0 -> Node9 [color="midnightblue",fontsize="10",style="solid"];
  Node9 [label="cublas.h",height=0.2,width=0.4,color="grey75", fillcolor="white", style="filled"];
  Node0 -> Node10 [color="midnightblue",fontsize="10",style="solid"];
  Node10 [label="mkl.h",height=0.2,width=0.4,color="grey75", fillcolor="white", style="filled"];
  Node0 -> Node11 [color="midnightblue",fontsize="10",style="solid"];
  Node11 [label="mkl_lapack.h",height=0.2,width=0.4,color="grey75", fillcolor="white", style="filled"];
  Node0 -> Node12 [color="midnightblue",fontsize="10",style="solid"];
  Node12 [label="testings.h",height=0.2,width=0.4,color="grey75", fillcolor="white", style="filled"];
  Node0 -> Node13 [color="midnightblue",fontsize="10",style="solid"];
  Node13 [label="magmautils.h",height=0.2,width=0.4,color="grey75", fillcolor="white", style="filled"];
  Node0 -> Node14 [color="midnightblue",fontsize="10",style="solid"];
  Node14 [label="cublas_mv.h",height=0.2,width=0.4,color="grey75", fillcolor="white", style="filled"];
  Node0 -> Node15 [color="midnightblue",fontsize="10",style="solid"];
  Node15 [label="IEL.h",height=0.2,width=0.4,color="black", fillcolor="white", style="filled",URL="$_i_e_l_8h.html"];
  Node15 -> Node16 [color="midnightblue",fontsize="10",style="solid"];
  Node16 [label="IEL_err.h",height=0.2,width=0.4,color="black", fillcolor="white", style="filled",URL="$_i_e_l__err_8h.html"];
  Node16 -> Node2 [color="midnightblue",fontsize="10",style="solid"];
  Node15 -> Node17 [color="midnightblue",fontsize="10",style="solid"];
  Node17 [label="IEL_comm.h",height=0.2,width=0.4,color="black", fillcolor="white", style="filled",URL="$_i_e_l__comm_8h.html"];
  Node17 -> Node18 [color="midnightblue",fontsize="10",style="solid"];
  Node18 [label="IEL_data_handle.h",height=0.2,width=0.4,color="black", fillcolor="white", style="filled",URL="$_i_e_l__data__handle_8h.html"];
  Node18 -> Node1 [color="midnightblue",fontsize="10",style="solid"];
  Node18 -> Node3 [color="midnightblue",fontsize="10",style="solid"];
  Node0 -> Node19 [color="midnightblue",fontsize="10",style="solid"];
  Node19 [label="IEL_exec_info.h",height=0.2,width=0.4,color="black", fillcolor="white", style="filled",URL="$_i_e_l__exec__info_8h.html"];
  Node19 -> Node15 [color="midnightblue",fontsize="10",style="solid"];
  Node19 -> Node4 [color="midnightblue",fontsize="10",style="solid"];
}
