digraph "IEL_exec_info_t"
{
  edge [fontname="Helvetica",fontsize="10",labelfontname="Helvetica",labelfontsize="10"];
  node [fontname="Helvetica",fontsize="10",shape=record];
  Node1 [label="IEL_exec_info_t",height=0.2,width=0.4,color="black", fillcolor="grey75", style="filled", fontcolor="black"];
  Node2 -> Node1 [dir="back",color="darkorchid3",fontsize="10",style="dashed",label=" modules" ];
  Node2 [label="module_depend_t",height=0.2,width=0.4,color="black", fillcolor="white", style="filled",URL="$structmodule__depend__t.html",tooltip="This structure represents the module information from the configuration file. "];
  Node3 -> Node1 [dir="back",color="darkorchid3",fontsize="10",style="dashed",label=" work_groups" ];
  Node3 [label="IEL_workflow_group_t",height=0.2,width=0.4,color="black", fillcolor="white", style="filled",URL="$struct_i_e_l__workflow__group__t.html",tooltip="This structure represents information required to describe workflow groups, specified in the congigur..."];
  Node4 -> Node1 [dir="back",color="darkorchid3",fontsize="10",style="dashed",label=" cinfo" ];
  Node4 [label="IEL_component_info_t",height=0.2,width=0.4,color="black", fillcolor="white", style="filled",URL="$struct_i_e_l__component__info__t.html",tooltip="This structure contains the information pertaining to a IELComm module. "];
  Node5 -> Node4 [dir="back",color="darkorchid3",fontsize="10",style="dashed",label=" data_flow" ];
  Node5 [label="IEL_data_flow_t",height=0.2,width=0.4,color="black", fillcolor="white", style="filled",URL="$struct_i_e_l__data__flow__t.html",tooltip="This structure represents the data flow for the IELComm system. "];
  Node6 -> Node4 [dir="back",color="darkorchid3",fontsize="10",style="dashed",label=" phandle" ];
  Node6 [label="IEL_data_handle_t",height=0.2,width=0.4,color="black", fillcolor="white", style="filled",URL="$struct_i_e_l__data__handle__t.html",tooltip="This structure describes a data handle, which is a named \"connection\" between two modules..."];
}
