digraph "manager_init"
{
  edge [fontname="Helvetica",fontsize="10",labelfontname="Helvetica",labelfontsize="10"];
  node [fontname="Helvetica",fontsize="10",shape=record];
  rankdir="LR";
  Node25 [label="manager_init",height=0.2,width=0.4,color="black", fillcolor="grey75", style="filled", fontcolor="black"];
  Node25 -> Node26 [dir="back",color="midnightblue",fontsize="10",style="solid"];
  Node26 [label="ielTupleServer",height=0.2,width=0.4,color="black", fillcolor="white", style="filled",URL="$tuple_server_8c.html#ade4d513e84cd3a4aeded08fa17504428"];
}
